Vast Challenge Assignment Part 5
…
cc$timestamp <- date_time_parse(cc$timestamp,
                                 zone = "",
                                 format = "%m/%d/%Y %H:%M")

loyalty$timestamp <- date_parse(loyalty$timestamp,
                                 format = "%m/%d/%Y")

cc_dtsplit <- cc %>%
  mutate(day = date_weekday_factor(cc$timestamp), date =  as_date(cc$timestamp), time = format(cc$timestamp, format = "%H:%M"))

cc_dtsplit

# A tibble: 1,490 x 7
   timestamp           location      price last4ccnum day   date      
   <dttm>              <chr>         <dbl> <fct>      <ord> <date>    
 1 2014-01-06 07:28:00 Brew've Been~ 11.3  4795       Mon   2014-01-06
 2 2014-01-06 07:34:00 Hallowed Gro~ 52.2  7108       Mon   2014-01-06
 3 2014-01-06 07:35:00 Brew've Been~  8.33 6816       Mon   2014-01-06
 4 2014-01-06 07:36:00 Hallowed Gro~ 16.7  9617       Mon   2014-01-06
 5 2014-01-06 07:37:00 Brew've Been~  4.24 7384       Mon   2014-01-06
 6 2014-01-06 07:38:00 Brew've Been~  4.17 5368       Mon   2014-01-06
 7 2014-01-06 07:42:00 Coffee Camel~ 28.7  7253       Mon   2014-01-06
 8 2014-01-06 07:43:00 Brew've Been~  9.6  4948       Mon   2014-01-06
 9 2014-01-06 07:43:00 Brew've Been~ 16.9  9683       Mon   2014-01-06
10 2014-01-06 07:47:00 Hallowed Gro~ 16.5  8129       Mon   2014-01-06
# ... with 1,480 more rows, and 1 more variable: time <chr>
…
loyalty_dt_bar <- loyalty_dt %>%
  count(location) %>%
  mutate(location = fct_reorder(location, n, .desc =TRUE)) %>%
  plot_ly(x = ~location, y = ~n, marker = list(color = ~n)) %>%
  add_bars() %>%
  layout(title = "Total number of visitation by ", xaxis = list(title = ""),yaxis = list(title = "Number of visitors"))

loyalty_dt_bar

cc_loyalty_join <- cc_dtsplit %>%
  inner_join(loyalty_dt, by = c("date","location", "price"))

cc_loyalty_join

# A tibble: 1,087 x 8
   timestamp           location      price last4ccnum day   date      
   <dttm>              <chr>         <dbl> <fct>      <ord> <date>    
 1 2014-01-06 07:28:00 Brew've Been~ 11.3  4795       Mon   2014-01-06
 2 2014-01-06 07:35:00 Brew've Been~  8.33 6816       Mon   2014-01-06
 3 2014-01-06 07:36:00 Hallowed Gro~ 16.7  9617       Mon   2014-01-06
 4 2014-01-06 07:37:00 Brew've Been~  4.24 7384       Mon   2014-01-06
 5 2014-01-06 07:38:00 Brew've Been~  4.17 5368       Mon   2014-01-06
 6 2014-01-06 07:43:00 Brew've Been~  9.6  4948       Mon   2014-01-06
 7 2014-01-06 07:43:00 Brew've Been~ 16.9  9683       Mon   2014-01-06
 8 2014-01-06 07:47:00 Hallowed Gro~ 16.5  8129       Mon   2014-01-06
 9 2014-01-06 07:48:00 Hallowed Gro~ 10.7  3492       Mon   2014-01-06
10 2014-01-06 07:49:00 Coffee Camel~  8.39 5921       Mon   2014-01-06
# ... with 1,077 more rows, and 2 more variables: time <chr>,
#   loyaltynum <fct>

cc_loyalty_antijoin <- cc_dtsplit %>%
  anti_join(loyalty_dt, by = c("date","location", "price"))

cc_loyalty_antijoin

# A tibble: 409 x 7
   timestamp           location      price last4ccnum day   date      
   <dttm>              <chr>         <dbl> <fct>      <ord> <date>    
 1 2014-01-06 07:34:00 Hallowed Gr~ 5.22e1 7108       Mon   2014-01-06
 2 2014-01-06 07:42:00 Coffee Came~ 2.87e1 7253       Mon   2014-01-06
 3 2014-01-06 07:52:00 Brew've Bee~ 3.28e1 9405       Mon   2014-01-06
 4 2014-01-06 07:54:00 Hallowed Gr~ 1.69e1 7889       Mon   2014-01-06
 5 2014-01-06 07:54:00 Hallowed Gr~ 3.29e1 2681       Mon   2014-01-06
 6 2014-01-06 08:00:00 Hallowed Gr~ 9.69e0 6691       Mon   2014-01-06
 7 2014-01-06 08:14:00 Coffee Came~ 3.2 e0 2418       Mon   2014-01-06
 8 2014-01-06 12:00:00 Coffee Shack 5.15e1 7117       Mon   2014-01-06
 9 2014-01-06 12:00:00 Jack's Magi~ 2.78e1 8156       Mon   2014-01-06
10 2014-01-06 12:16:00 Abila Airpo~ 1.87e3 8642       Mon   2014-01-06
# ... with 399 more rows, and 1 more variable: time <chr>

cc_loyalty_antijoin_right <- loyalty_dt%>%
  anti_join(cc_dtsplit, by = c("date","location", "price")) %>%
  ungroup()

cc_loyalty_antijoin_right

# A tibble: 311 x 4
   date       location                    price loyaltynum
   <date>     <chr>                       <dbl> <fct>     
 1 2014-01-06 "Coffee Shack"              11.5  L6417     
 2 2014-01-06 "Hallowed Grounds"          12.9  L1107     
 3 2014-01-06 "Abila Zacharo"             26.9  L9018     
 4 2014-01-06 "Katerina\u0012s Cafi"      38.6  L6110     
 5 2014-01-06 "Frydos Autosupply n' More" 89.3  L4034     
 6 2014-01-07 "Hallowed Grounds"           8.42 L1107     
 7 2014-01-07 "Coffee Cameleon"           12.4  L9018     
 8 2014-01-07 "Ouzeri Elian"              17.7  L2247     
 9 2014-01-07 "Katerina\u0012s Cafi"      25.0  L2343     
10 2014-01-08 "Brew've Been Served"       14.9  L2247     
# ... with 301 more rows
…
4.4. Given the data sources provided, identify potential informal or unofficial relationships among GASTech personnel. Provide evidence for these relationships. Please limit your response to 8 images and 500 words.

Network analysis is used to detect relationship between people of interests.

To start our journey of network analysis. We will first fulljoin the dataset of cc_loyalty_join to car_cc. The full join will indicates an NA that does not have any data on the other dataset.On the below tibble, we will be able to note that there are CarIDs that have NA. The reason being those are likely truck drivers in which the car_cc dataset do not have any indicative value for that.

car_cc_join <- cc_loyalty_join %>%
  full_join(car_cc, by = c("last4ccnum" , "loyaltynum"))

car_cc_join

# A tibble: 1,104 x 9
   timestamp           location      price last4ccnum day   date      
   <dttm>              <chr>         <dbl> <fct>      <ord> <date>    
 1 2014-01-06 07:28:00 Brew've Been~ 11.3  4795       Mon   2014-01-06
 2 2014-01-06 07:35:00 Brew've Been~  8.33 6816       Mon   2014-01-06
 3 2014-01-06 07:36:00 Hallowed Gro~ 16.7  9617       Mon   2014-01-06
 4 2014-01-06 07:37:00 Brew've Been~  4.24 7384       Mon   2014-01-06
 5 2014-01-06 07:38:00 Brew've Been~  4.17 5368       Mon   2014-01-06
 6 2014-01-06 07:43:00 Brew've Been~  9.6  4948       Mon   2014-01-06
 7 2014-01-06 07:43:00 Brew've Been~ 16.9  9683       Mon   2014-01-06
 8 2014-01-06 07:47:00 Hallowed Gro~ 16.5  8129       Mon   2014-01-06
 9 2014-01-06 07:48:00 Hallowed Gro~ 10.7  3492       Mon   2014-01-06
10 2014-01-06 07:49:00 Coffee Camel~  8.39 5921       Mon   2014-01-06
# ... with 1,094 more rows, and 3 more variables: time <chr>,
#   loyaltynum <fct>, CarID <dbl>

We will take a look at those CarID with NA values. There are a total of some of the rows that the CarID cant be inferred.

car_cc_na <- cc_loyalty_join %>%
  full_join(car_cc, by = c("last4ccnum" , "loyaltynum")) %>%
  filter(is.na(CarID))

car_cc_na

# A tibble: 31 x 9
   timestamp           location      price last4ccnum day   date      
   <dttm>              <chr>         <dbl> <fct>      <ord> <date>    
 1 2014-01-06 10:02:00 Nationwide ~  762.  9735       Mon   2014-01-06
 2 2014-01-06 11:33:00 Stewart and~ 2145.  9735       Mon   2014-01-06
 3 2014-01-06 12:00:00 Jack's Magi~   18.6 9241       Mon   2014-01-06
 4 2014-01-07 10:11:00 Nationwide ~ 1347.  9735       Tue   2014-01-07
 5 2014-01-07 12:00:00 Jack's Magi~   18.8 9241       Tue   2014-01-07
 6 2014-01-07 20:15:00 Ouzeri Elian   11.4 9241       Tue   2014-01-07
 7 2014-01-08 10:14:00 Nationwide ~ 3674.  9735       Wed   2014-01-08
 8 2014-01-08 11:58:00 Stewart and~ 1674.  9735       Wed   2014-01-08
 9 2014-01-08 12:00:00 Jack's Magi~   18.8 9241       Wed   2014-01-08
10 2014-01-09 10:16:00 Nationwide ~  674.  9735       Thu   2014-01-09
# ... with 21 more rows, and 3 more variables: time <chr>,
#   loyaltynum <fct>, CarID <dbl>

We will drop those NA data that cant be inferred. We have atotal of 1073 rows in our joined dataset.

car_cc_dropna <- car_cc_join %>%
  drop_na(CarID) 

car_cc_dropna$CarID = as.factor(car_cc_dropna$CarID)

car_cc_dropna 

# A tibble: 1,073 x 9
   timestamp           location      price last4ccnum day   date      
   <dttm>              <chr>         <dbl> <fct>      <ord> <date>    
 1 2014-01-06 07:28:00 Brew've Been~ 11.3  4795       Mon   2014-01-06
 2 2014-01-06 07:35:00 Brew've Been~  8.33 6816       Mon   2014-01-06
 3 2014-01-06 07:36:00 Hallowed Gro~ 16.7  9617       Mon   2014-01-06
 4 2014-01-06 07:37:00 Brew've Been~  4.24 7384       Mon   2014-01-06
 5 2014-01-06 07:38:00 Brew've Been~  4.17 5368       Mon   2014-01-06
 6 2014-01-06 07:43:00 Brew've Been~  9.6  4948       Mon   2014-01-06
 7 2014-01-06 07:43:00 Brew've Been~ 16.9  9683       Mon   2014-01-06
 8 2014-01-06 07:47:00 Hallowed Gro~ 16.5  8129       Mon   2014-01-06
 9 2014-01-06 07:48:00 Hallowed Gro~ 10.7  3492       Mon   2014-01-06
10 2014-01-06 07:49:00 Coffee Camel~  8.39 5921       Mon   2014-01-06
# ... with 1,063 more rows, and 3 more variables: time <chr>,
#   loyaltynum <fct>, CarID <fct>

Next, we will select out those data from the car assignment dataset that we are required for our network analysis study.

car_unite_select <- car_unite %>%
  select(name, CarID, CurrentEmploymentType, CurrentEmploymentTitle)

car_unite_select

# A tibble: 44 x 4
   name              CarID CurrentEmploymentType CurrentEmploymentTit~
   <chr>             <fct> <chr>                 <chr>                
 1 Calixto, Nils     1     Information Technolo~ IT Helpdesk          
 2 Azada, Lars       2     Engineering           Engineer             
 3 Balas, Felix      3     Engineering           Engineer             
 4 Barranco, Ingrid  4     Executive             SVP/CFO              
 5 Baza, Isak        5     Information Technolo~ IT Technician        
 6 Bergen, Linnea    6     Information Technolo~ IT Group Manager     
 7 Orilla, Elsa      7     Engineering           Drill Technician     
 8 Alcazar, Lucas    8     Information Technolo~ IT Technician        
 9 Cazar, Gustav     9     Engineering           Drill Technician     
10 Campo-Corrente, ~ 10    Executive             SVP/CIO              
# ... with 34 more rows

We will next join the car_cc dataset with the car assignment dataset. Notice that there is a reduction in number of rows, those rows that are taken out are trucks which does not have any CarID.

carassgn_car_cc_join <- car_cc_dropna %>%
  inner_join(car_unite_select, by = c("CarID"))

carassgn_car_cc_join

# A tibble: 1,023 x 12
   timestamp           location      price last4ccnum day   date      
   <dttm>              <chr>         <dbl> <fct>      <ord> <date>    
 1 2014-01-06 07:28:00 Brew've Been~ 11.3  4795       Mon   2014-01-06
 2 2014-01-06 07:35:00 Brew've Been~  8.33 6816       Mon   2014-01-06
 3 2014-01-06 07:36:00 Hallowed Gro~ 16.7  9617       Mon   2014-01-06
 4 2014-01-06 07:37:00 Brew've Been~  4.24 7384       Mon   2014-01-06
 5 2014-01-06 07:38:00 Brew've Been~  4.17 5368       Mon   2014-01-06
 6 2014-01-06 07:43:00 Brew've Been~  9.6  4948       Mon   2014-01-06
 7 2014-01-06 07:43:00 Brew've Been~ 16.9  9683       Mon   2014-01-06
 8 2014-01-06 07:47:00 Hallowed Gro~ 16.5  8129       Mon   2014-01-06
 9 2014-01-06 07:48:00 Hallowed Gro~ 10.7  3492       Mon   2014-01-06
10 2014-01-06 07:49:00 Coffee Camel~  8.39 5921       Mon   2014-01-06
# ... with 1,013 more rows, and 6 more variables: time <chr>,
#   loyaltynum <fct>, CarID <fct>, name <chr>,
#   CurrentEmploymentType <chr>, CurrentEmploymentTitle <chr>

How do we find out the relationship between a person to another. Normally, when friends went out together to have lunch, they will pay separetely on the spot. This is indicative of a close relationship. For our study, we will cut the transaction time in breaks of 5 mins to try and sieve out those similar transactions that might be indicative of a close relationship between people.

To do that, we will need to cut the timestamp by 5mins break as shown below. You will notice that a new row time_5 is created and break by 5 mins.

ccassgn_5min <- carassgn_car_cc_join  %>%
  mutate(time_5 = cut(timestamp, breaks="5 min"))

ccassgn_5min

# A tibble: 1,023 x 13
   timestamp           location      price last4ccnum day   date      
   <dttm>              <chr>         <dbl> <fct>      <ord> <date>    
 1 2014-01-06 07:28:00 Brew've Been~ 11.3  4795       Mon   2014-01-06
 2 2014-01-06 07:35:00 Brew've Been~  8.33 6816       Mon   2014-01-06
 3 2014-01-06 07:36:00 Hallowed Gro~ 16.7  9617       Mon   2014-01-06
 4 2014-01-06 07:37:00 Brew've Been~  4.24 7384       Mon   2014-01-06
 5 2014-01-06 07:38:00 Brew've Been~  4.17 5368       Mon   2014-01-06
 6 2014-01-06 07:43:00 Brew've Been~  9.6  4948       Mon   2014-01-06
 7 2014-01-06 07:43:00 Brew've Been~ 16.9  9683       Mon   2014-01-06
 8 2014-01-06 07:47:00 Hallowed Gro~ 16.5  8129       Mon   2014-01-06
 9 2014-01-06 07:48:00 Hallowed Gro~ 10.7  3492       Mon   2014-01-06
10 2014-01-06 07:49:00 Coffee Camel~  8.39 5921       Mon   2014-01-06
# ... with 1,013 more rows, and 7 more variables: time <chr>,
#   loyaltynum <fct>, CarID <fct>, name <chr>,
#   CurrentEmploymentType <chr>, CurrentEmploymentTitle <chr>,
#   time_5 <fct>

Next, we will filter out those columns that are required for our network analysis study.

ccassgn_5min_select <- ccassgn_5min %>%
  select(CarID,time_5,location,name,day)

ccassgn_5min_select

# A tibble: 1,023 x 5
   CarID time_5              location            name            day  
   <fct> <fct>               <chr>               <chr>           <ord>
 1 16    2014-01-06 07:28:00 Brew've Been Served Vann, Isia      Mon  
 2 25    2014-01-06 07:33:00 Brew've Been Served Herrero, Kanon  Mon  
 3 18    2014-01-06 07:33:00 Hallowed Grounds    Frente, Birgit~ Mon  
 4 17    2014-01-06 07:33:00 Brew've Been Served Flecha, Sven    Mon  
 5 8     2014-01-06 07:38:00 Brew've Been Served Alcazar, Lucas  Mon  
 6 30    2014-01-06 07:43:00 Brew've Been Served Resumir, Felix  Mon  
 7 33    2014-01-06 07:43:00 Brew've Been Served Tempestad, Bra~ Mon  
 8 15    2014-01-06 07:43:00 Hallowed Grounds    Bodrogi, Loreto Mon  
 9 27    2014-01-06 07:48:00 Hallowed Grounds    Orilla, Kare    Mon  
10 29    2014-01-06 07:48:00 Coffee Cameleon     Ovan, Bertrand  Mon  
# ... with 1,013 more rows

Next, we will join the same table with each other to examine any close relationship between each other. Notice that there are CarID_1 and CarID_2. As there should not be two CarID that are the same with each other. We will take it out on the next code chunk.

car_location_edges <- ccassgn_5min_select %>%
  inner_join(ccassgn_5min_select, by = c("time_5","location","day"), suffix = c("_1","_2"))

car_location_edges

# A tibble: 1,577 x 7
   CarID_1 time_5      location     name_1     day   CarID_2 name_2   
   <fct>   <fct>       <chr>        <chr>      <ord> <fct>   <chr>    
 1 16      2014-01-06~ Brew've Bee~ Vann, Isia Mon   16      Vann, Is~
 2 25      2014-01-06~ Brew've Bee~ Herrero, ~ Mon   25      Herrero,~
 3 25      2014-01-06~ Brew've Bee~ Herrero, ~ Mon   17      Flecha, ~
 4 18      2014-01-06~ Hallowed Gr~ Frente, B~ Mon   18      Frente, ~
 5 17      2014-01-06~ Brew've Bee~ Flecha, S~ Mon   25      Herrero,~
 6 17      2014-01-06~ Brew've Bee~ Flecha, S~ Mon   17      Flecha, ~
 7 8       2014-01-06~ Brew've Bee~ Alcazar, ~ Mon   8       Alcazar,~
 8 30      2014-01-06~ Brew've Bee~ Resumir, ~ Mon   30      Resumir,~
 9 30      2014-01-06~ Brew've Bee~ Resumir, ~ Mon   33      Tempesta~
10 33      2014-01-06~ Brew've Bee~ Tempestad~ Mon   30      Resumir,~
# ... with 1,567 more rows

Next, we will group the two carids together with the time, location and day to find out those carids that goes to the same place around the same time.

car_location_edges_aggregated <- car_location_edges %>%
  group_by(CarID_1, CarID_2, time_5, location, day) %>%
  summarise(Weight = n()) %>%
  filter(CarID_1 != CarID_2) %>%
  ungroup()

car_location_edges_aggregated

# A tibble: 510 x 6
   CarID_1 CarID_2 time_5              location         day   Weight
   <fct>   <fct>   <fct>               <chr>            <ord>  <int>
 1 1       5       2014-01-16 20:23:00 Ouzeri Elian     Thu        1
 2 1       6       2014-01-07 13:33:00 Gelatogalore     Tue        1
 3 1       8       2014-01-15 13:38:00 Ouzeri Elian     Wed        1
 4 1       9       2014-01-07 13:43:00 Kalami Kafenion  Tue        1
 5 1       12      2014-01-07 07:48:00 Hallowed Grounds Tue        1
 6 1       12      2014-01-07 13:43:00 Kalami Kafenion  Tue        1
 7 1       12      2014-01-08 20:58:00 General Grocer   Wed        1
 8 1       12      2014-01-09 14:03:00 Ouzeri Elian     Thu        1
 9 1       12      2014-01-10 07:48:00 Hallowed Grounds Fri        1
10 1       12      2014-01-11 14:13:00 Kalami Kafenion  Sat        1
# ... with 500 more rows

Next, we will drop those truck values which are NA from the car assignment dataset to prevent any error from forming during the network analysis.

car_nodes_with_truck <- car_unite %>%
  select(CarID, name,CurrentEmploymentType,CurrentEmploymentTitle)

car_nodes <- car_nodes_with_truck %>%
  drop_na(CarID)

car_nodes

# A tibble: 35 x 4
   CarID name              CurrentEmploymentType CurrentEmploymentTit~
   <fct> <chr>             <chr>                 <chr>                
 1 1     Calixto, Nils     Information Technolo~ IT Helpdesk          
 2 2     Azada, Lars       Engineering           Engineer             
 3 3     Balas, Felix      Engineering           Engineer             
 4 4     Barranco, Ingrid  Executive             SVP/CFO              
 5 5     Baza, Isak        Information Technolo~ IT Technician        
 6 6     Bergen, Linnea    Information Technolo~ IT Group Manager     
 7 7     Orilla, Elsa      Engineering           Drill Technician     
 8 8     Alcazar, Lucas    Information Technolo~ IT Technician        
 9 9     Cazar, Gustav     Engineering           Drill Technician     
10 10    Campo-Corrente, ~ Executive             SVP/CIO              
# ... with 25 more rows
…
Next, we will repeat the step for cc-loyalty left antijoin.

cc_loyalty_antijoin

# A tibble: 409 x 7
   timestamp           location      price last4ccnum day   date      
   <dttm>              <chr>         <dbl> <fct>      <ord> <date>    
 1 2014-01-06 07:34:00 Hallowed Gr~ 5.22e1 7108       Mon   2014-01-06
 2 2014-01-06 07:42:00 Coffee Came~ 2.87e1 7253       Mon   2014-01-06
 3 2014-01-06 07:52:00 Brew've Bee~ 3.28e1 9405       Mon   2014-01-06
 4 2014-01-06 07:54:00 Hallowed Gr~ 1.69e1 7889       Mon   2014-01-06
 5 2014-01-06 07:54:00 Hallowed Gr~ 3.29e1 2681       Mon   2014-01-06
 6 2014-01-06 08:00:00 Hallowed Gr~ 9.69e0 6691       Mon   2014-01-06
 7 2014-01-06 08:14:00 Coffee Came~ 3.2 e0 2418       Mon   2014-01-06
 8 2014-01-06 12:00:00 Coffee Shack 5.15e1 7117       Mon   2014-01-06
 9 2014-01-06 12:00:00 Jack's Magi~ 2.78e1 8156       Mon   2014-01-06
10 2014-01-06 12:16:00 Abila Airpo~ 1.87e3 8642       Mon   2014-01-06
# ... with 399 more rows, and 1 more variable: time <chr>
…
