VA assignment: Vast Challenge Assignment Part 3
…
cc$timestamp <- date_time_parse(cc$timestamp,
                                 zone = "",
                                 format = "%m/%d/%Y %H:%M")

loyalty$timestamp <- date_parse(loyalty$timestamp,
                                 format = "%m/%d/%Y")

cc_dtsplit <- cc %>%
  mutate(day = date_weekday_factor(cc$timestamp), date =  as_date(cc$timestamp), time = format(cc$timestamp, format = "%H:%M"))

cc_dtsplit

# A tibble: 1,490 x 7
   timestamp           location      price last4ccnum day   date      
   <dttm>              <chr>         <dbl> <fct>      <ord> <date>    
 1 2014-01-06 07:28:00 Brew've Been~ 11.3  4795       Mon   2014-01-06
 2 2014-01-06 07:34:00 Hallowed Gro~ 52.2  7108       Mon   2014-01-06
 3 2014-01-06 07:35:00 Brew've Been~  8.33 6816       Mon   2014-01-06
 4 2014-01-06 07:36:00 Hallowed Gro~ 16.7  9617       Mon   2014-01-06
 5 2014-01-06 07:37:00 Brew've Been~  4.24 7384       Mon   2014-01-06
 6 2014-01-06 07:38:00 Brew've Been~  4.17 5368       Mon   2014-01-06
 7 2014-01-06 07:42:00 Coffee Camel~ 28.7  7253       Mon   2014-01-06
 8 2014-01-06 07:43:00 Brew've Been~  9.6  4948       Mon   2014-01-06
 9 2014-01-06 07:43:00 Brew've Been~ 16.9  9683       Mon   2014-01-06
10 2014-01-06 07:47:00 Hallowed Gro~ 16.5  8129       Mon   2014-01-06
# ... with 1,480 more rows, and 1 more variable: time <chr>
…
loyalty_dt_bar <- loyalty_dt %>%
  count(location) %>%
  mutate(location = fct_reorder(location, n, .desc =TRUE)) %>%
  plot_ly(x = ~location, y = ~n, marker = list(color = ~n)) %>%
  add_bars() %>%
  layout(title = "Total number of visitation by ", xaxis = list(title = ""),yaxis = list(title = "Number of visitors"))

loyalty_dt_bar

cc_loyalty_join <- cc_dtsplit %>%
  inner_join(loyalty_dt, by = c("date","location", "price"))

cc_loyalty_join

# A tibble: 1,087 x 8
   timestamp           location      price last4ccnum day   date      
   <dttm>              <chr>         <dbl> <fct>      <ord> <date>    
 1 2014-01-06 07:28:00 Brew've Been~ 11.3  4795       Mon   2014-01-06
 2 2014-01-06 07:35:00 Brew've Been~  8.33 6816       Mon   2014-01-06
 3 2014-01-06 07:36:00 Hallowed Gro~ 16.7  9617       Mon   2014-01-06
 4 2014-01-06 07:37:00 Brew've Been~  4.24 7384       Mon   2014-01-06
 5 2014-01-06 07:38:00 Brew've Been~  4.17 5368       Mon   2014-01-06
 6 2014-01-06 07:43:00 Brew've Been~  9.6  4948       Mon   2014-01-06
 7 2014-01-06 07:43:00 Brew've Been~ 16.9  9683       Mon   2014-01-06
 8 2014-01-06 07:47:00 Hallowed Gro~ 16.5  8129       Mon   2014-01-06
 9 2014-01-06 07:48:00 Hallowed Gro~ 10.7  3492       Mon   2014-01-06
10 2014-01-06 07:49:00 Coffee Camel~  8.39 5921       Mon   2014-01-06
# ... with 1,077 more rows, and 2 more variables: time <chr>,
#   loyaltynum <fct>
…
In order for us to match the car assignment person to the gps data. We will inner join the data.

Notice that there is only a total of 613077 dataset. This shows that some of the vehicles recorded are not part of the car_assignment data. I.e. vehicles apart from the car assignees has been tracked too. This phenomena wil be explained in the next section.

gps_car <- gps_cleaned %>%
  inner_join(car_unite, by = "CarID") 

gps_car

# A tibble: 613,077 x 9
   Timestamp           CarID   lat  long name       LastName FirstName
   <dttm>              <fct> <dbl> <dbl> <chr>      <chr>    <chr>    
 1 2014-01-06 06:28:00 35     36.1  24.9 Vasco-Pai~ Vasco-P~ Willem   
 2 2014-01-06 06:28:00 35     36.1  24.9 Vasco-Pai~ Vasco-P~ Willem   
 3 2014-01-06 06:28:00 35     36.1  24.9 Vasco-Pai~ Vasco-P~ Willem   
 4 2014-01-06 06:28:00 35     36.1  24.9 Vasco-Pai~ Vasco-P~ Willem   
 5 2014-01-06 06:28:00 35     36.1  24.9 Vasco-Pai~ Vasco-P~ Willem   
 6 2014-01-06 06:28:00 35     36.1  24.9 Vasco-Pai~ Vasco-P~ Willem   
 7 2014-01-06 06:28:00 35     36.1  24.9 Vasco-Pai~ Vasco-P~ Willem   
 8 2014-01-06 06:28:00 35     36.1  24.9 Vasco-Pai~ Vasco-P~ Willem   
 9 2014-01-06 06:28:00 35     36.1  24.9 Vasco-Pai~ Vasco-P~ Willem   
10 2014-01-06 06:28:00 35     36.1  24.9 Vasco-Pai~ Vasco-P~ Willem   
# ... with 613,067 more rows, and 2 more variables:
#   CurrentEmploymentType <chr>, CurrentEmploymentTitle <chr>

The car_unite dataset which consists of car assigned to GASTech employees and also truck drivers which have no CarID.

car_unite

# A tibble: 44 x 6
   name    LastName  FirstName CarID CurrentEmployme~ CurrentEmployme~
   <chr>   <chr>     <chr>     <fct> <chr>            <chr>           
 1 Calixt~ Calixto   Nils      1     Information Tec~ IT Helpdesk     
 2 Azada,~ Azada     Lars      2     Engineering      Engineer        
 3 Balas,~ Balas     Felix     3     Engineering      Engineer        
 4 Barran~ Barranco  Ingrid    4     Executive        SVP/CFO         
 5 Baza, ~ Baza      Isak      5     Information Tec~ IT Technician   
 6 Bergen~ Bergen    Linnea    6     Information Tec~ IT Group Manager
 7 Orilla~ Orilla    Elsa      7     Engineering      Drill Technician
 8 Alcaza~ Alcazar   Lucas     8     Information Tec~ IT Technician   
 9 Cazar,~ Cazar     Gustav    9     Engineering      Drill Technician
10 Campo-~ Campo-Co~ Ada       10    Executive        SVP/CIO         
# ... with 34 more rows

Comparing the above car_unite DT table with the below gps_cleaned table, you will observe that there are vehicle IDs of 101-107. Those are assume to be trucks.

gps_cleaned

# A tibble: 685,169 x 4
   Timestamp           CarID   lat  long
   <dttm>              <fct> <dbl> <dbl>
 1 2014-01-06 06:28:00 35     36.1  24.9
 2 2014-01-06 06:28:00 35     36.1  24.9
 3 2014-01-06 06:28:00 35     36.1  24.9
 4 2014-01-06 06:28:00 35     36.1  24.9
 5 2014-01-06 06:28:00 35     36.1  24.9
 6 2014-01-06 06:28:00 35     36.1  24.9
 7 2014-01-06 06:28:00 35     36.1  24.9
 8 2014-01-06 06:28:00 35     36.1  24.9
 9 2014-01-06 06:28:00 35     36.1  24.9
10 2014-01-06 06:28:00 35     36.1  24.9
# ... with 685,159 more rows
…
Next, we will anti join both the car and gps datasets to sieve out those vehicle movement that are not part of the car assignees data.

The below dataset will clearly show those CarID of 101-107 which are assume to be trucks.

Going back to the background of this assignment. We will observe that GAStech do provide trucks for official business use. As such, we will assume that those vehicle with CarID of 101 to 107 are trucks.

These trucks will later be used for examination to see if they were used for personal used.

gps_car_anti <- gps_cleaned %>%
  anti_join(car_unite, by = "CarID")

gps_car_anti

# A tibble: 72,092 x 4
   Timestamp           CarID   lat  long
   <dttm>              <fct> <dbl> <dbl>
 1 2014-01-06 07:36:00 101    36.0  24.9
 2 2014-01-06 07:36:00 101    36.0  24.9
 3 2014-01-06 07:36:00 101    36.0  24.9
 4 2014-01-06 07:36:00 101    36.0  24.9
 5 2014-01-06 07:36:00 101    36.0  24.9
 6 2014-01-06 07:36:00 101    36.0  24.9
 7 2014-01-06 07:36:00 101    36.0  24.9
 8 2014-01-06 07:36:00 101    36.0  24.9
 9 2014-01-06 07:36:00 101    36.0  24.9
10 2014-01-06 07:36:00 101    36.0  24.9
# ... with 72,082 more rows

We will revisit the cc_loyalty dataset

cc_loyalty_join %>%
  arrange(timestamp)

# A tibble: 1,087 x 8
   timestamp           location      price last4ccnum day   date      
   <dttm>              <chr>         <dbl> <fct>      <ord> <date>    
 1 2014-01-06 07:28:00 Brew've Been~ 11.3  4795       Mon   2014-01-06
 2 2014-01-06 07:35:00 Brew've Been~  8.33 6816       Mon   2014-01-06
 3 2014-01-06 07:36:00 Hallowed Gro~ 16.7  9617       Mon   2014-01-06
 4 2014-01-06 07:37:00 Brew've Been~  4.24 7384       Mon   2014-01-06
 5 2014-01-06 07:38:00 Brew've Been~  4.17 5368       Mon   2014-01-06
 6 2014-01-06 07:43:00 Brew've Been~  9.6  4948       Mon   2014-01-06
 7 2014-01-06 07:43:00 Brew've Been~ 16.9  9683       Mon   2014-01-06
 8 2014-01-06 07:47:00 Hallowed Gro~ 16.5  8129       Mon   2014-01-06
 9 2014-01-06 07:48:00 Hallowed Gro~ 10.7  3492       Mon   2014-01-06
10 2014-01-06 07:49:00 Coffee Camel~  8.39 5921       Mon   2014-01-06
# ... with 1,077 more rows, and 2 more variables: time <chr>,
#   loyaltynum <fct>
…
Now, we will filter out those data before 2014-01-06 07:28:00 to take a look at the CarID. First will filter out those data that are before 07:00:00 so that when we plot the bar chart later, it will be visible

gps_car_filter <- gps_car %>%
  filter(Timestamp < "2014-01-06 07:00:00")

gps_car_filter

# A tibble: 379 x 9
   Timestamp           CarID   lat  long name       LastName FirstName
   <dttm>              <fct> <dbl> <dbl> <chr>      <chr>    <chr>    
 1 2014-01-06 06:28:00 35     36.1  24.9 Vasco-Pai~ Vasco-P~ Willem   
 2 2014-01-06 06:28:00 35     36.1  24.9 Vasco-Pai~ Vasco-P~ Willem   
 3 2014-01-06 06:28:00 35     36.1  24.9 Vasco-Pai~ Vasco-P~ Willem   
 4 2014-01-06 06:28:00 35     36.1  24.9 Vasco-Pai~ Vasco-P~ Willem   
 5 2014-01-06 06:28:00 35     36.1  24.9 Vasco-Pai~ Vasco-P~ Willem   
 6 2014-01-06 06:28:00 35     36.1  24.9 Vasco-Pai~ Vasco-P~ Willem   
 7 2014-01-06 06:28:00 35     36.1  24.9 Vasco-Pai~ Vasco-P~ Willem   
 8 2014-01-06 06:28:00 35     36.1  24.9 Vasco-Pai~ Vasco-P~ Willem   
 9 2014-01-06 06:28:00 35     36.1  24.9 Vasco-Pai~ Vasco-P~ Willem   
10 2014-01-06 06:28:00 35     36.1  24.9 Vasco-Pai~ Vasco-P~ Willem   
# ... with 369 more rows, and 2 more variables:
#   CurrentEmploymentType <chr>, CurrentEmploymentTitle <chr>
…
gps_car_group %>%
  plot_ly(x = ~Timestamp, y = ~count, color = ~CarID, hoverinfo = "text",
          text = ~paste("CarID:", CarID, "<br>","Timestamp:", Timestamp, "<br>", "Count:", count)) %>%
  add_bars %>%
  layout(xaxis = list(title  = ""))

Next, we will filter out 07:00:00 - 07:12:00.

gps_car_filter2 <- gps_car %>%
  filter(Timestamp > "2014-01-06 07:00:00" & Timestamp <= "2014-01-06 07:12:00")

gps_car_filter2

# A tibble: 1,407 x 9
   Timestamp           CarID   lat  long name      LastName  FirstName
   <dttm>              <fct> <dbl> <dbl> <chr>     <chr>     <chr>    
 1 2014-01-06 07:01:00 7      36.1  24.9 Orilla, ~ Orilla    Elsa     
 2 2014-01-06 07:01:00 10     36.1  24.9 Campo-Co~ Campo-Co~ Ada      
 3 2014-01-06 07:01:00 7      36.1  24.9 Orilla, ~ Orilla    Elsa     
 4 2014-01-06 07:01:00 7      36.1  24.9 Orilla, ~ Orilla    Elsa     
 5 2014-01-06 07:01:00 7      36.1  24.9 Orilla, ~ Orilla    Elsa     
 6 2014-01-06 07:01:00 7      36.1  24.9 Orilla, ~ Orilla    Elsa     
 7 2014-01-06 07:01:00 7      36.1  24.9 Orilla, ~ Orilla    Elsa     
 8 2014-01-06 07:01:00 7      36.1  24.9 Orilla, ~ Orilla    Elsa     
 9 2014-01-06 07:01:00 7      36.1  24.9 Orilla, ~ Orilla    Elsa     
10 2014-01-06 07:01:00 7      36.1  24.9 Orilla, ~ Orilla    Elsa     
# ... with 1,397 more rows, and 2 more variables:
#   CurrentEmploymentType <chr>, CurrentEmploymentTitle <chr>
…
gps_car_group2 %>%
  plot_ly(x = ~Timestamp, y = ~count, color = ~CarID, hoverinfo = "text",
          text = ~paste("CarID:", CarID, "<br>","Timestamp:", Timestamp, "<br>", "Count:", count)) %>%
  add_bars %>%
  layout(xaxis = list(title  = ""))

Next, we will filter for 07:12:00 to 07:28:00

gps_car_filter3 <- gps_car %>%
  filter(Timestamp > "2014-01-06 07:12:00" & Timestamp < "2014-01-06 07:28:00")

gps_car_filter3

# A tibble: 1,699 x 9
   Timestamp           CarID   lat  long name       LastName FirstName
   <dttm>              <fct> <dbl> <dbl> <chr>      <chr>    <chr>    
 1 2014-01-06 07:13:00 18     36.1  24.9 Frente, B~ Frente   Birgitta 
 2 2014-01-06 07:13:00 35     36.0  24.9 Vasco-Pai~ Vasco-P~ Willem   
 3 2014-01-06 07:13:00 20     36.1  24.9 Fusil, St~ Fusil    Stenig   
 4 2014-01-06 07:13:00 35     36.0  24.9 Vasco-Pai~ Vasco-P~ Willem   
 5 2014-01-06 07:13:00 18     36.1  24.9 Frente, B~ Frente   Birgitta 
 6 2014-01-06 07:13:00 20     36.1  24.9 Fusil, St~ Fusil    Stenig   
 7 2014-01-06 07:13:00 35     36.0  24.9 Vasco-Pai~ Vasco-P~ Willem   
 8 2014-01-06 07:13:00 18     36.1  24.9 Frente, B~ Frente   Birgitta 
 9 2014-01-06 07:13:00 20     36.1  24.9 Fusil, St~ Fusil    Stenig   
10 2014-01-06 07:13:00 35     36.0  24.9 Vasco-Pai~ Vasco-P~ Willem   
# ... with 1,689 more rows, and 2 more variables:
#   CurrentEmploymentType <chr>, CurrentEmploymentTitle <chr>
…
Similar as before, 35 is still moving about out till 07:27:00 with the highest movement count per minute.

gps_car_group3 %>%
  plot_ly(x = ~Timestamp, y = ~count, color = ~as.factor(CarID), hoverinfo = "text",
          text = ~paste("CarID:", CarID, "<br>","Timestamp:", Timestamp, "<br>", "Count:", count)) %>%
  add_bars %>%
  layout(xaxis = list(title  = ""))

Next, we will examine the last 6 min of the gps dataset

gps_car_filter4 <- gps_car %>%
  filter(Timestamp > "2014-01-19 20:51:00")
gps_car_filter4

# A tibble: 21 x 9
   Timestamp           CarID   lat  long name       LastName FirstName
   <dttm>              <fct> <dbl> <dbl> <chr>      <chr>    <chr>    
 1 2014-01-19 20:56:00 30     36.1  24.9 Resumir, ~ Resumir  Felix    
 2 2014-01-19 20:56:00 30     36.1  24.9 Resumir, ~ Resumir  Felix    
 3 2014-01-19 20:56:00 30     36.1  24.9 Resumir, ~ Resumir  Felix    
 4 2014-01-19 20:56:00 30     36.1  24.9 Resumir, ~ Resumir  Felix    
 5 2014-01-19 20:56:00 30     36.1  24.9 Resumir, ~ Resumir  Felix    
 6 2014-01-19 20:56:00 30     36.1  24.9 Resumir, ~ Resumir  Felix    
 7 2014-01-19 20:56:00 30     36.1  24.9 Resumir, ~ Resumir  Felix    
 8 2014-01-19 20:56:00 30     36.1  24.9 Resumir, ~ Resumir  Felix    
 9 2014-01-19 20:56:00 30     36.1  24.9 Resumir, ~ Resumir  Felix    
10 2014-01-19 20:56:00 30     36.1  24.9 Resumir, ~ Resumir  Felix    
# ... with 11 more rows, and 2 more variables:
#   CurrentEmploymentType <chr>, CurrentEmploymentTitle <chr>
…
gps_car_group4

# A tibble: 1 x 3
  Timestamp           CarID count
  <dttm>              <fct> <int>
1 2014-01-19 20:56:00 30       21

cc_gps <- cc_loyalty_join %>%
  inner_join(gps_car, by = c("timestamp" = "Timestamp"))

cc_gps

# A tibble: 123,687 x 16
   timestamp           location      price last4ccnum day   date      
   <dttm>              <chr>         <dbl> <fct>      <ord> <date>    
 1 2014-01-06 07:28:00 Brew've Been~  11.3 4795       Mon   2014-01-06
 2 2014-01-06 07:28:00 Brew've Been~  11.3 4795       Mon   2014-01-06
 3 2014-01-06 07:28:00 Brew've Been~  11.3 4795       Mon   2014-01-06
 4 2014-01-06 07:28:00 Brew've Been~  11.3 4795       Mon   2014-01-06
 5 2014-01-06 07:28:00 Brew've Been~  11.3 4795       Mon   2014-01-06
 6 2014-01-06 07:28:00 Brew've Been~  11.3 4795       Mon   2014-01-06
 7 2014-01-06 07:28:00 Brew've Been~  11.3 4795       Mon   2014-01-06
 8 2014-01-06 07:28:00 Brew've Been~  11.3 4795       Mon   2014-01-06
 9 2014-01-06 07:28:00 Brew've Been~  11.3 4795       Mon   2014-01-06
10 2014-01-06 07:28:00 Brew've Been~  11.3 4795       Mon   2014-01-06
# ... with 123,677 more rows, and 10 more variables: time <chr>,
#   loyaltynum <fct>, CarID <fct>, lat <dbl>, long <dbl>, name <chr>,
#   LastName <chr>, FirstName <chr>, CurrentEmploymentType <chr>,
#   CurrentEmploymentTitle <chr>
…
